{
  "guilds": [
    {
      "name": "Kalimero",
      "tag": "KALI",
      "guildMaster": ["Aditya"],
      "officer": ["Yopopoi", "Malbius"],
      "level": "63",
      "orientation": "Familiale"
    },
    {
      "name": "Raid I Like To Farm",
      "tag": "RILF",
      "guildMaster": ["Neith", "Aryanizzle", "Baalzebub", "Marellia"],
      "officer": [],
      "level": "25",
      "orientation": "Familiale"
    },
    {
      "name": "The Rainbow Triad",
      "tag": "TRT",
      "guildMaster": ["Tlucius", "Calypso", "Chrismanga"],
      "officer": ["Hikaru", "Mikiolys", "Slim Shady"],
      "level": "13",
      "orientation": "Familiale"
    },
    {
      "name": "Neo Synergy",
      "tag": "NeoS",
      "guildMaster": ["Syaru", "Ashyrra"],
      "officer": [],
      "level": "20",
      "orientation": "Semi-Hardcore Endgame"
    }
  ],
  "csgo": {
    "team": "Karma .",
    "rankMM": "suprem",
    "rankWingman": "global",
    "rankDangerZone": "wildscoutelite"
  },
  "apex": {
    "rank": "platinum4",
    "mainLegend": "Revenant"
  }
}
